Works/Work1/simulation/qsim/Work1.msim.vcd
$comment
	File created using the following command:
		vcd file Work1.msim.vcd -direction
$end
$date
	Sat Dec 03 23:07:44 2022
$end
$version
	ModelSim Version 10.5b
$end
$timescale
	1ps
$end

$scope module Decoder3x8_ver1_Behave_vlg_vec_tst $end
$var reg 1 ! A $end
$var reg 1 " B $end
$var reg 1 # C $end
$var wire 1 $ D0 $end
$var wire 1 % D1 $end
$var wire 1 & D2 $end
$var wire 1 ' D3 $end
$var wire 1 ( D4 $end
$var wire 1 ) D5 $end
$var wire 1 * D6 $end
$var wire 1 + D7 $end

$scope module i1 $end
$var wire 1 , gnd $end
$var wire 1 - vcc $end
$var wire 1 . unknown $end
$var tri1 1 / devclrn $end
$var tri1 1 0 devpor $end
$var tri1 1 1 devoe $end
$var wire 1 2 D0~output_o $end
$var wire 1 3 D1~output_o $end
$var wire 1 4 D2~output_o $end
$var wire 1 5 D3~output_o $end
$var wire 1 6 D4~output_o $end
$var wire 1 7 D5~output_o $end
$var wire 1 8 D6~output_o $end
$var wire 1 9 D7~output_o $end
$var wire 1 : C~input_o $end
$var wire 1 ; A~input_o $end
$var wire 1 < B~input_o $end
$var wire 1 = Decoder0~0_combout $end
$var wire 1 > Decoder0~1_combout $end
$var wire 1 ? Decoder0~2_combout $end
$var wire 1 @ Decoder0~3_combout $end
$var wire 1 A Decoder0~4_combout $end
$var wire 1 B Decoder0~5_combout $end
$var wire 1 C Decoder0~6_combout $end
$var wire 1 D Decoder0~7_combout $end
$upscope $end
$upscope $end
$enddefinitions $end
#0
$dumpvars
0!
0"
0#
1$
0%
0&
0'
0(
0)
0*
0+
0,
1-
x.
1/
10
11
12
03
04
05
06
07
08
09
0:
0;
0<
1=
0>
0?
0@
0A
0B
0C
0D
$end
#50000
1#
1:
1>
0=
02
13
1%
0$
#100000
1"
0#
1<
0:
1?
0>
03
14
1&
0%
#150000
1#
1:
1@
0?
04
15
1'
0&
#200000
1!
0"
0#
1;
0<
0:
1A
0@
05
16
1(
0'
#250000
1#
1:
1B
0A
06
17
1)
0(
#300000
1"
0#
1<
0:
1C
0B
07
18
1*
0)
#350000
1#
1:
1D
0C
08
19
1+
0*
#400000
0!
0"
0#
0;
0<
0:
0D
1=
12
09
0+
1$
#450000
1#
1:
1>
0=
02
13
1%
0$
#500000
1"
0#
1<
0:
1?
0>
03
14
1&
0%
#550000
1#
1:
1@
0?
04
15
1'
0&
#600000
1!
0"
0#
1;
0<
0:
1A
0@
05
16
1(
0'
#650000
1#
1:
1B
0A
06
17
1)
0(
#700000
1"
0#
1<
0:
1C
0B
07
18
1*
0)
#750000
1#
1:
1D
0C
08
19
1+
0*
#800000
0!
0"
0#
0;
0<
0:
0D
1=
12
09
0+
1$
#850000
1#
1:
1>
0=
02
13
1%
0$
#900000
1"
0#
1<
0:
1?
0>
03
14
1&
0%
#950000
1#
1:
1@
0?
04
15
1'
0&
