Lectures/Lecture 4/simulation/qsim/Lecture4.msim.vcd
$comment
	File created using the following command:
		vcd file Lecture4.msim.vcd -direction
$end
$date
	Thu Dec 01 18:32:56 2022
$end
$version
	ModelSim Version 10.5b
$end
$timescale
	1ps
$end

$scope module mux_2x1_vlg_vec_tst $end
$var reg 2 ! in [1:0] $end
$var reg 1 " sel $end
$var wire 1 # out $end

$scope module i1 $end
$var wire 1 $ gnd $end
$var wire 1 % vcc $end
$var wire 1 & unknown $end
$var tri1 1 ' devclrn $end
$var tri1 1 ( devpor $end
$var tri1 1 ) devoe $end
$var wire 1 * ~QUARTUS_CREATED_GND~I_combout $end
$var wire 1 + sel~input_o $end
$var wire 1 , in[1]~input_o $end
$var wire 1 - in[0]~input_o $end
$var wire 1 . out~0_combout $end
$upscope $end
$upscope $end
$enddefinitions $end
#0
$dumpvars
b0 !
0"
0#
0$
1%
x&
1'
1(
1)
0*
0+
0,
0-
0.
$end
#5000
b10 !
1,
#10000
b11 !
b1 !
1-
0,
1.
1#
#15000
b11 !
1,
#20000
1"
b10 !
b0 !
1+
0-
0,
0.
0#
#25000
b10 !
1,
1.
1#
#30000
b11 !
b1 !
1-
0,
0.
0#
#35000
b11 !
1,
1.
1#
#40000
0"
b10 !
b0 !
0+
0-
0,
0.
0#
#45000
b10 !
1,
#50000
b11 !
b1 !
1-
0,
1.
1#
#55000
b11 !
1,
#60000
1"
b10 !
b0 !
1+
0-
0,
0.
0#
#65000
b10 !
1,
1.
1#
#70000
b11 !
b1 !
1-
0,
0.
0#
#75000
b11 !
1,
1.
1#
#80000
0"
b10 !
b0 !
0+
0-
0,
0.
0#
#85000
b10 !
1,
#90000
b11 !
b1 !
1-
0,
1.
1#
#95000
b11 !
1,
#100000
1"
b10 !
b0 !
1+
0-
0,
0.
0#
#105000
b10 !
1,
1.
1#
#110000
b11 !
b1 !
1-
0,
0.
0#
#115000
b11 !
1,
1.
1#
#120000
0"
b10 !
b0 !
0+
0-
0,
0.
0#
#125000
b10 !
1,
#130000
b11 !
b1 !
1-
0,
1.
1#
#135000
b11 !
1,
#140000
1"
b10 !
b0 !
1+
0-
0,
0.
0#
#145000
b10 !
1,
1.
1#
#150000
b11 !
b1 !
1-
0,
0.
0#
#155000
b11 !
1,
1.
1#
#160000
0"
b10 !
b0 !
0+
0-
0,
0.
0#
#165000
b10 !
1,
#170000
b11 !
b1 !
1-
0,
1.
1#
#175000
b11 !
1,
#180000
1"
b10 !
b0 !
1+
0-
0,
0.
0#
#185000
b10 !
1,
1.
1#
#190000
b11 !
b1 !
1-
0,
0.
0#
#195000
b11 !
1,
1.
1#
#200000
0"
b10 !
b0 !
0+
0-
0,
0.
0#
#205000
b10 !
1,
#210000
b11 !
b1 !
1-
0,
1.
1#
#215000
b11 !
1,
#220000
1"
b10 !
b0 !
1+
0-
0,
0.
0#
#225000
b10 !
1,
1.
1#
#230000
b11 !
b1 !
1-
0,
0.
0#
#235000
b11 !
1,
1.
1#
#240000
0"
b10 !
b0 !
0+
0-
0,
0.
0#
#245000
b10 !
1,
#250000
b11 !
b1 !
1-
0,
1.
1#
#255000
b11 !
1,
#260000
1"
b10 !
b0 !
1+
0-
0,
0.
0#
#265000
b10 !
1,
1.
1#
#270000
b11 !
b1 !
1-
0,
0.
0#
#275000
b11 !
1,
1.
1#
#280000
0"
b10 !
b0 !
0+
0-
0,
0.
0#
#285000
b10 !
1,
#290000
b11 !
b1 !
1-
0,
1.
1#
#295000
b11 !
1,
#300000
1"
b10 !
b0 !
1+
0-
0,
0.
0#
#305000
b10 !
1,
1.
1#
#310000
b11 !
b1 !
1-
0,
0.
0#
#315000
b11 !
1,
1.
1#
#320000
0"
b10 !
b0 !
0+
0-
0,
0.
0#
#325000
b10 !
1,
#330000
b11 !
b1 !
1-
0,
1.
1#
#335000
b11 !
1,
#340000
1"
b10 !
b0 !
1+
0-
0,
0.
0#
#345000
b10 !
1,
1.
1#
#350000
b11 !
b1 !
1-
0,
0.
0#
#355000
b11 !
1,
1.
1#
#360000
0"
b10 !
b0 !
0+
0-
0,
0.
0#
#365000
b10 !
1,
#370000
b11 !
b1 !
1-
0,
1.
1#
#375000
b11 !
1,
#380000
1"
b10 !
b0 !
1+
0-
0,
0.
0#
#385000
b10 !
1,
1.
1#
#390000
b11 !
b1 !
1-
0,
0.
0#
#395000
b11 !
1,
1.
1#
#400000
0"
b10 !
b0 !
0+
0-
0,
0.
0#
#405000
b10 !
1,
#410000
b11 !
b1 !
1-
0,
1.
1#
#415000
b11 !
1,
#420000
1"
b10 !
b0 !
1+
0-
0,
0.
0#
#425000
b10 !
1,
1.
1#
#430000
b11 !
b1 !
1-
0,
0.
0#
#435000
b11 !
1,
1.
1#
#440000
0"
b10 !
b0 !
0+
0-
0,
0.
0#
#445000
b10 !
1,
#450000
b11 !
b1 !
1-
0,
1.
1#
#455000
b11 !
1,
#460000
1"
b10 !
b0 !
1+
0-
0,
0.
0#
#465000
b10 !
1,
1.
1#
#470000
b11 !
b1 !
1-
0,
0.
0#
#475000
b11 !
1,
1.
1#
#480000
0"
b10 !
b0 !
0+
0-
0,
0.
0#
#485000
b10 !
1,
#490000
b11 !
b1 !
1-
0,
1.
1#
#495000
b11 !
1,
#500000
1"
b10 !
b0 !
1+
0-
0,
0.
0#
#505000
b10 !
1,
1.
1#
#510000
b11 !
b1 !
1-
0,
0.
0#
#515000
b11 !
1,
1.
1#
#520000
0"
b10 !
b0 !
0+
0-
0,
0.
0#
#525000
b10 !
1,
#530000
b11 !
b1 !
1-
0,
1.
1#
#535000
b11 !
1,
#540000
1"
b10 !
b0 !
1+
0-
0,
0.
0#
#545000
b10 !
1,
1.
1#
#550000
b11 !
b1 !
1-
0,
0.
0#
#555000
b11 !
1,
1.
1#
#560000
0"
b10 !
b0 !
0+
0-
0,
0.
0#
#565000
b10 !
1,
#570000
b11 !
b1 !
1-
0,
1.
1#
#575000
b11 !
1,
#580000
1"
b10 !
b0 !
1+
0-
0,
0.
0#
#585000
b10 !
1,
1.
1#
#590000
b11 !
b1 !
1-
0,
0.
0#
#595000
b11 !
1,
1.
1#
#600000
0"
b10 !
b0 !
0+
0-
0,
0.
0#
#605000
b10 !
1,
#610000
b11 !
b1 !
1-
0,
1.
1#
#615000
b11 !
1,
#620000
1"
b10 !
b0 !
1+
0-
0,
0.
0#
#625000
b10 !
1,
1.
1#
#630000
b11 !
b1 !
1-
0,
0.
0#
#635000
b11 !
1,
1.
1#
#640000
0"
b10 !
b0 !
0+
0-
0,
0.
0#
#645000
b10 !
1,
#650000
b11 !
b1 !
1-
0,
1.
1#
#655000
b11 !
1,
#660000
1"
b10 !
b0 !
1+
0-
0,
0.
0#
#665000
b10 !
1,
1.
1#
#670000
b11 !
b1 !
1-
0,
0.
0#
#675000
b11 !
1,
1.
1#
#680000
0"
b10 !
b0 !
0+
0-
0,
0.
0#
#685000
b10 !
1,
#690000
b11 !
b1 !
1-
0,
1.
1#
#695000
b11 !
1,
#700000
1"
b10 !
b0 !
1+
0-
0,
0.
0#
#705000
b10 !
1,
1.
1#
#710000
b11 !
b1 !
1-
0,
0.
0#
#715000
b11 !
1,
1.
1#
#720000
0"
b10 !
b0 !
0+
0-
0,
0.
0#
#725000
b10 !
1,
#730000
b11 !
b1 !
1-
0,
1.
1#
#735000
b11 !
1,
#740000
1"
b10 !
b0 !
1+
0-
0,
0.
0#
#745000
b10 !
1,
1.
1#
#750000
b11 !
b1 !
1-
0,
0.
0#
#755000
b11 !
1,
1.
1#
#760000
0"
b10 !
b0 !
0+
0-
0,
0.
0#
#765000
b10 !
1,
#770000
b11 !
b1 !
1-
0,
1.
1#
#775000
b11 !
1,
#780000
1"
b10 !
b0 !
1+
0-
0,
0.
0#
#785000
b10 !
1,
1.
1#
#790000
b11 !
b1 !
1-
0,
0.
0#
#795000
b11 !
1,
1.
1#
#800000
0"
b10 !
b0 !
0+
0-
0,
0.
0#
#805000
b10 !
1,
#810000
b11 !
b1 !
1-
0,
1.
1#
#815000
b11 !
1,
#820000
1"
b10 !
b0 !
1+
0-
0,
0.
0#
#825000
b10 !
1,
1.
1#
#830000
b11 !
b1 !
1-
0,
0.
0#
#835000
b11 !
1,
1.
1#
#840000
0"
b10 !
b0 !
0+
0-
0,
0.
0#
#845000
b10 !
1,
#850000
b11 !
b1 !
1-
0,
1.
1#
#855000
b11 !
1,
#860000
1"
b10 !
b0 !
1+
0-
0,
0.
0#
#865000
b10 !
1,
1.
1#
#870000
b11 !
b1 !
1-
0,
0.
0#
#875000
b11 !
1,
1.
1#
#880000
0"
b10 !
b0 !
0+
0-
0,
0.
0#
#885000
b10 !
1,
#890000
b11 !
b1 !
1-
0,
1.
1#
#895000
b11 !
1,
#900000
1"
b10 !
b0 !
1+
0-
0,
0.
0#
#905000
b10 !
1,
1.
1#
#910000
b11 !
b1 !
1-
0,
0.
0#
#915000
b11 !
1,
1.
1#
#920000
0"
b10 !
b0 !
0+
0-
0,
0.
0#
#925000
b10 !
1,
#930000
b11 !
b1 !
1-
0,
1.
1#
#935000
b11 !
1,
#940000
1"
b10 !
b0 !
1+
0-
0,
0.
0#
#945000
b10 !
1,
1.
1#
#950000
b11 !
b1 !
1-
0,
0.
0#
#955000
b11 !
1,
1.
1#
#960000
0"
b10 !
b0 !
0+
0-
0,
0.
0#
#965000
b10 !
1,
#970000
b11 !
b1 !
1-
0,
1.
1#
#975000
b11 !
1,
#980000
1"
b10 !
b0 !
1+
0-
0,
0.
0#
#985000
b10 !
1,
1.
1#
#990000
b11 !
b1 !
1-
0,
0.
0#
#995000
b11 !
1,
1.
1#
