Works/work2/simulation/qsim/Work2.msim.vcd
$comment
	File created using the following command:
		vcd file Work2.msim.vcd -direction
$end
$date
	Thu Dec 08 23:10:27 2022
$end
$version
	ModelSim Version 10.5b
$end
$timescale
	1ps
$end

$scope module ALU_vlg_vec_tst $end
$var reg 1 ! A $end
$var reg 1 " B $end
$var reg 1 # Carry_in $end
$var reg 1 $ ENA $end
$var reg 1 % ENB $end
$var reg 1 & F0 $end
$var reg 1 ' F1 $end
$var reg 1 ( INVA $end
$var wire 1 ) Carry_out $end
$var wire 1 * Out $end

$scope module i1 $end
$var wire 1 + gnd $end
$var wire 1 , vcc $end
$var wire 1 - unknown $end
$var tri1 1 . devclrn $end
$var tri1 1 / devpor $end
$var tri1 1 0 devoe $end
$var wire 1 1 Carry_out~output_o $end
$var wire 1 2 Out~output_o $end
$var wire 1 3 B~input_o $end
$var wire 1 4 ENB~input_o $end
$var wire 1 5 sysB~0_combout $end
$var wire 1 6 F1~input_o $end
$var wire 1 7 F0~input_o $end
$var wire 1 8 Mux0~0_combout $end
$var wire 1 9 Carry_in~input_o $end
$var wire 1 : A~input_o $end
$var wire 1 ; INVA~input_o $end
$var wire 1 < ENA~input_o $end
$var wire 1 = sysA~0_combout $end
$var wire 1 > Carry_out~0_combout $end
$var wire 1 ? Mux0~1_combout $end
$var wire 1 @ Mux0~2_combout $end
$upscope $end
$upscope $end
$enddefinitions $end
#0
$dumpvars
0!
0"
0#
1$
1%
1&
1'
0(
0)
0*
0+
1,
x-
1.
1/
10
01
02
03
14
05
16
17
18
09
0:
0;
1<
0=
0>
0?
0@
$end
#20000
1!
1:
1=
1?
1@
12
1*
#40000
1"
0!
13
0:
15
0=
0?
0@
02
0*
1@
12
1*
#60000
1!
1:
1=
1?
1>
11
1)
0@
02
0*
#80000
1(
0"
0!
1;
03
0:
05
1@
0>
01
12
1*
0)
#100000
1!
1:
0=
0?
0@
02
0*
#120000
1"
0!
13
0:
15
1=
1?
1@
1>
11
12
1*
1)
0@
02
0*
#140000
1!
1:
0=
0?
0>
01
0)
1@
12
1*
#160000
1#
0(
0"
0!
19
0;
03
0:
1?
05
1>
11
1)
0>
01
0)
#180000
1!
1:
1=
0?
1>
11
1)
0@
02
0*
#200000
1"
0!
13
0:
15
0=
1?
1@
12
1*
0@
02
0*
#220000
1!
1:
1=
0?
1@
12
1*
#240000
1(
0"
0!
1;
03
0:
05
0@
02
0*
#260000
1!
1:
0=
1?
0>
01
0)
1@
12
1*
#280000
1"
0!
13
0:
15
1=
0?
0@
1>
11
02
0*
1)
1@
12
1*
#300000
1!
1:
0=
1?
0@
02
0*
#320000
0#
0(
0"
0!
09
0;
03
0:
0?
05
0>
01
0)
#340000
1!
1:
1=
1?
1@
12
1*
#360000
1"
0!
13
0:
15
0=
0?
0@
02
0*
1@
12
1*
#380000
1!
1:
1=
1?
1>
11
1)
0@
02
0*
#400000
1(
0"
0!
1;
03
0:
05
1@
0>
01
12
1*
0)
#420000
1!
1:
0=
0?
0@
02
0*
#440000
1"
0!
13
0:
15
1=
1?
1@
1>
11
12
1*
1)
0@
02
0*
#460000
1!
1:
0=
0?
0>
01
0)
1@
12
1*
#480000
1#
0(
0"
0!
19
0;
03
0:
1?
05
1>
11
1)
0>
01
0)
#500000
1!
1:
1=
0?
1>
11
1)
0@
02
0*
#520000
1"
0!
13
0:
15
0=
1?
1@
12
1*
0@
02
0*
#540000
1!
1:
1=
0?
1@
12
1*
#560000
1(
0"
0!
1;
03
0:
05
0@
02
0*
#580000
1!
1:
0=
1?
0>
01
0)
1@
12
1*
#600000
1"
0!
13
0:
15
1=
0?
0@
1>
11
02
0*
1)
1@
12
1*
#620000
1!
1:
0=
1?
0@
02
0*
#640000
0#
0(
0"
0!
09
0;
03
0:
0?
05
0>
01
0)
#660000
1!
1:
1=
1?
1@
12
1*
#680000
1"
0!
13
0:
15
0=
0?
0@
02
0*
1@
12
1*
#700000
1!
1:
1=
1?
1>
11
1)
0@
02
0*
#720000
1(
0"
0!
1;
03
0:
05
1@
0>
01
12
1*
0)
#740000
1!
1:
0=
0?
0@
02
0*
#760000
1"
0!
13
0:
15
1=
1?
1@
1>
11
12
1*
1)
0@
02
0*
#780000
1!
1:
0=
0?
0>
01
0)
1@
12
1*
#800000
1#
0(
0"
0!
19
0;
03
0:
1?
05
1>
11
1)
0>
01
0)
#820000
1!
1:
1=
0?
1>
11
1)
0@
02
0*
#840000
1"
0!
13
0:
15
0=
1?
1@
12
1*
0@
02
0*
#860000
1!
1:
1=
0?
1@
12
1*
#880000
1(
0"
0!
1;
03
0:
05
0@
02
0*
#900000
1!
1:
0=
1?
0>
01
0)
1@
12
1*
#920000
1"
0!
13
0:
15
1=
0?
0@
1>
11
02
0*
1)
1@
12
1*
#940000
1!
1:
0=
1?
0@
02
0*
#960000
0#
0(
0"
0!
09
0;
03
0:
0?
05
0>
01
0)
#980000
1!
1:
1=
1?
1@
12
1*
